…
# By dummy

    Code
      x0 = crosstable(mtcars3, c(am, mpg, cyl, surv), by = dummy)
      x0
    Output
      # A tibble: 38 x 4
         .id   label               variable   dummy           
         <chr> <chr>               <chr>      <chr>           
       1 am    Transmission        auto       19 (59.38%)     
       2 am    Transmission        manual     13 (40.62%)     
       3 mpg   Miles/(US) gallon   Min / Max  10.4 / 33.9     
       4 mpg   Miles/(US) gallon   Med [IQR]  19.2 [15.4;22.8]
       5 mpg   Miles/(US) gallon   Mean (std) 20.1 (6.0)      
       6 mpg   Miles/(US) gallon   N (NA)     32 (0)          
       7 cyl   Number of cylinders 4          10 (37.04%)     
       8 cyl   Number of cylinders 6          4 (14.81%)      
       9 cyl   Number of cylinders 8          13 (48.15%)     
      10 cyl   Number of cylinders NA         5               
      # ... with 28 more rows
…
      col_keys: `label`, `variable`, `dummy` 
      header has 2 row(s) 
      body has 38 row(s) 
      original dataset sample: 
        .id             label   variable            dummy
      1  am      Transmission       auto      19 (59.38%)
      2  am      Transmission     manual      13 (40.62%)
      3 mpg Miles/(US) gallon  Min / Max      10.4 / 33.9
      4 mpg Miles/(US) gallon  Med [IQR] 19.2 [15.4;22.8]
      5 mpg Miles/(US) gallon Mean (std)       20.1 (6.0)
    Code
      x1 = crosstable(mtcars3, c(am, mpg, cyl, surv), by = dummy, showNA = TRUE)
      x1
    Output
      # A tibble: 39 x 5
         .id   label               variable   dummy            `NA` 
         <chr> <chr>               <chr>      <chr>            <chr>
       1 am    Transmission        auto       19 (59.38%)      0    
       2 am    Transmission        manual     13 (40.62%)      0    
       3 am    Transmission        NA         0                0    
       4 mpg   Miles/(US) gallon   Min / Max  10.4 / 33.9      no NA
       5 mpg   Miles/(US) gallon   Med [IQR]  19.2 [15.4;22.8] no NA
       6 mpg   Miles/(US) gallon   Mean (std) 20.1 (6.0)       no NA
       7 mpg   Miles/(US) gallon   N (NA)     32 (0)           no NA
       8 cyl   Number of cylinders 4          10 (37.04%)      0    
       9 cyl   Number of cylinders 6          4 (14.81%)       0    
      10 cyl   Number of cylinders 8          13 (48.15%)      0    
      # ... with 29 more rows
…
---

    Code
      x2 = crosstable(mtcars3, c(am, mpg, cyl, surv), by = dummy2)
      x2
    Output
      # A tibble: 39 x 5
         .id   label               variable   dummy            `NA`            
         <chr> <chr>               <chr>      <chr>            <chr>           
       1 am    Transmission        auto       11 (100.00%)     8               
       2 am    Transmission        manual     13 (100.00%)     0               
       3 mpg   Miles/(US) gallon   Min / Max  10.4 / 33.9      14.3 / 24.4     
       4 mpg   Miles/(US) gallon   Med [IQR]  20.4 [15.2;23.6] 18.4 [17.5;20.1]
       5 mpg   Miles/(US) gallon   Mean (std) 20.5 (6.7)       19.0 (3.3)      
       6 mpg   Miles/(US) gallon   N (NA)     24 (0)           8 (0)           
       7 cyl   Number of cylinders 4          8 (100.00%)      2               
       8 cyl   Number of cylinders 6          1 (100.00%)      3               
       9 cyl   Number of cylinders 8          11 (100.00%)     2               
      10 cyl   Number of cylinders NA         4                1               
      # ... with 29 more rows
…
      col_keys: `label`, `variable`, `dummy`, `NA` 
      header has 2 row(s) 
      body has 39 row(s) 
      original dataset sample: 
        .id             label   variable            dummy               NA
      1  am      Transmission       auto     11 (100.00%)                8
      2  am      Transmission     manual     13 (100.00%)                0
      3 mpg Miles/(US) gallon  Min / Max      10.4 / 33.9      14.3 / 24.4
      4 mpg Miles/(US) gallon  Med [IQR] 20.4 [15.2;23.6] 18.4 [17.5;20.1]
      5 mpg Miles/(US) gallon Mean (std)       20.5 (6.7)       19.0 (3.3)
    Code
      x3 = crosstable(mtcars3, c(am, mpg, cyl, surv), by = dummy2, showNA = FALSE)
      x3
    Output
      # A tibble: 32 x 4
         .id   label                    variable   dummy           
         <chr> <chr>                    <chr>      <chr>           
       1 am    Transmission             auto       11 (100.00%)    
       2 am    Transmission             manual     13 (100.00%)    
       3 mpg   Miles/(US) gallon        Min / Max  10.4 / 33.9     
       4 mpg   Miles/(US) gallon        Med [IQR]  20.4 [15.2;23.6]
       5 mpg   Miles/(US) gallon        Mean (std) 20.5 (6.7)      
       6 mpg   Miles/(US) gallon        N (NA)     24 (0)          
       7 cyl   Number of cylinders      4          8 (100.00%)     
       8 cyl   Number of cylinders      6          1 (100.00%)     
       9 cyl   Number of cylinders      8          11 (100.00%)    
      10 surv  Dummy survival (disp/am) t=71.1     0.96 (1/24)     
      # ... with 22 more rows
…
      3 mpg Miles/(US) gallon Mean (std)            17.1 (3.8)
      4 mpg Miles/(US) gallon     N (NA)                19 (0)
      5  vs            Engine   straight            2 (22.22%)
        am=manual & dummy=dummy
      1             15.0 / 33.9
      2        22.8 [21.0;30.4]
      3              24.4 (6.2)
      4                  13 (0)
      5              7 (77.78%)
    Code
      x4 = crosstable(mtcars3, c(mpg, vs, cyl, dummy, surv, hp_date, qsec_posix, diff,
        cyl3), by = c(am, gear), total = TRUE, times = c(100, 200), followup = TRUE)
      x4
    Output
      # A tibble: 34 x 10
         .id   label               variable `am=auto & gear~ `am=manual & ge~ `am=auto & gear~
         <chr> <chr>               <chr>    <chr>            <chr>            <chr>           
       1 mpg   Miles/(US) gallon   Min / M~ 10.4 / 21.5      NA / NA          17.8 / 24.4     
       2 mpg   Miles/(US) gallon   Med [IQ~ 15.5 [14.5;18.4] NA [NA;NA]       21.0 [18.8;23.2]
       3 mpg   Miles/(US) gallon   Mean (s~ 16.1 (3.4)       NA (NA)          21.1 (3.1)      
       4 mpg   Miles/(US) gallon   N (NA)   15 (0)           0 (0)            4 (0)           
       5 vs    Engine              straight 2 (22.22%)       0 (0%)           0 (0%)          
       6 vs    Engine              vshaped  9 (60.00%)       0 (0%)           0 (0%)          
       7 vs    Engine              NA       4                0                4               
       8 vs    Engine              Total    15 (45.83%)      0 (0%)           4 (0%)          
       9 cyl   Number of cylinders 4        1 (10.00%)       0 (0%)           2 (20.00%)      
      10 cyl   Number of cylinders 6        1 (25.00%)       0 (0%)           2 (50.00%)      
      # ... with 24 more rows, and 4 more variables: am=manual & gear=4 <chr>,
      #   am=auto & gear=5 <chr>, am=manual & gear=5 <chr>, Total <chr>
…
