…
#>  7 Sepal.Width  Sepal.Width  Mean (std) 3.1 (0.4)    
#>  8 Sepal.Width  Sepal.Width  N (NA)     150 (0)      
#>  9 Petal.Length Petal.Length Min / Max  1.0 / 6.9    
#> 10 Petal.Length Petal.Length Med [IQR]  4.3 [1.6;5.1]
#> 11 Petal.Length Petal.Length Mean (std) 3.8 (1.8)    
#> 12 Petal.Length Petal.Length N (NA)     150 (0)      
#> 13 Petal.Width  Petal.Width  Min / Max  0.1 / 2.5    
#> 14 Petal.Width  Petal.Width  Med [IQR]  1.3 [0.3;1.8]
#> 15 Petal.Width  Petal.Width  Mean (std) 1.2 (0.8)    
#> 16 Petal.Width  Petal.Width  N (NA)     150 (0)      
#> 17 Species      Species      setosa     50 (33.33%)  
#> 18 Species      Species      versicolor 50 (33.33%)  
#> 19 Species      Species      virginica  50 (33.33%)  
crosstable(mtcars)
#> # A tibble: 38 × 4
#>    .id   label variable   value              
#>    <chr> <chr> <chr>      <chr>              
#>  1 mpg   mpg   Min / Max  10.4 / 33.9        
#>  2 mpg   mpg   Med [IQR]  19.2 [15.4;22.8]   
#>  3 mpg   mpg   Mean (std) 20.1 (6.0)         
#>  4 mpg   mpg   N (NA)     32 (0)             
#>  5 cyl   cyl   4          11 (34.38%)        
#>  6 cyl   cyl   6          7 (21.88%)         
#>  7 cyl   cyl   8          14 (43.75%)        
#>  8 disp  disp  Min / Max  71.1 / 472.0       
#>  9 disp  disp  Med [IQR]  196.3 [120.8;326.0]
#> 10 disp  disp  Mean (std) 230.7 (123.9)      
#> # ℹ 28 more rows
crosstable(mtcars2)
#> # A tibble: 78 × 4
#>    .id   label variable           value    
#>    <chr> <chr> <chr>              <chr>    
#>  1 model Model AMC Javelin        1 (3.12%)
#>  2 model Model Cadillac Fleetwood 1 (3.12%)
#>  3 model Model Camaro Z28         1 (3.12%)
#>  4 model Model Chrysler Imperial  1 (3.12%)
#>  5 model Model Datsun 710         1 (3.12%)
#>  6 model Model Dodge Challenger   1 (3.12%)
#>  7 model Model Duster 360         1 (3.12%)
#>  8 model Model Ferrari Dino       1 (3.12%)
#>  9 model Model Fiat 128           1 (3.12%)
#> 10 model Model Fiat X1-9          1 (3.12%)
#> # ℹ 68 more rows
…
