Modified mtcars dataset — mtcars2 • crosstable
…
    Examples

library(crosstable)
ct=crosstable(mtcars2, by=vs)
ct
#> # A tibble: 76 × 5
#>    .id   label variable           straight    vshaped    
#>    <chr> <chr> <chr>              <chr>       <chr>      
#>  1 model Model AMC Javelin        0 (0%)      1 (100.00%)
#>  2 model Model Cadillac Fleetwood 0 (0%)      1 (100.00%)
#>  3 model Model Camaro Z28         0 (0%)      1 (100.00%)
#>  4 model Model Chrysler Imperial  0 (0%)      1 (100.00%)
#>  5 model Model Datsun 710         1 (100.00%) 0 (0%)     
#>  6 model Model Dodge Challenger   0 (0%)      1 (100.00%)
#>  7 model Model Duster 360         0 (0%)      1 (100.00%)
#>  8 model Model Ferrari Dino       0 (0%)      1 (100.00%)
#>  9 model Model Fiat 128           1 (100.00%) 0 (0%)     
#> 10 model Model Fiat X1-9          1 (100.00%) 0 (0%)     
#> # ℹ 66 more rows
…
